Quantitative Research Skills 2022, Hands-On Exercise 2
…
USHSv2  <-  read_csv("USHSv2.csv")

## 
##  Column specification 
## cols(
##   .default = col_double(),
##   gender = col_character(),
##   BMI.factor = col_character()
## )
##  Use `spec()` for the full column specifications.

USHSv2

## # A tibble: 3,110 x 100
##    fsd_id    k1    k2   bv1   bv3   bv6    k7  k8_1  k8_2  k8_3  k8_4  k9_1
##     <dbl> <dbl> <dbl> <dbl> <dbl> <dbl> <dbl> <dbl> <dbl> <dbl> <dbl> <dbl>
##  1      1    NA     1     1    23     0     1     4     4     4     5    NA
##  2      2     2     2     1    23     0     1     4     4     4     4     3
##  3      3     3     1     1    23     0     1     3     3     3     3     2
##  4      4     2     1     1    23     0     1     4     5     5     5     2
##  5      5     2     1     1    23     0     2     5     4     5     5     3
##  6      6    NA     2     1    24     0     1     4     3     3     3     2
##  7      7     2     2     1    24     0     1     3     2     1     3     2
##  8      8     1     2     1    24     0     1     4     4     4     4     1
##  9      9     2     2     1    24     0     1     4     4     4     4     1
## 10     10     3     2     1    24     0     1     3     3     5     3     3
## #  with 3,100 more rows, and 88 more variables: k9_2 <dbl>, k9_3 <dbl>,
## #   k9_4 <dbl>, k9_5 <dbl>, k9_6 <dbl>, k9_7 <dbl>, k9_8 <dbl>, k9_9 <dbl>,
## #   k9_10 <dbl>, k9_11 <dbl>, k9_12 <dbl>, k9_13 <dbl>, k9_14 <dbl>,
## #   k9_15 <dbl>, k9_16 <dbl>, k9_17 <dbl>, k9_18 <dbl>, k9_19 <dbl>,
## #   k9_20 <dbl>, k9_21 <dbl>, k9_22 <dbl>, k9_23 <dbl>, k9_24 <dbl>,
## #   k9_25 <dbl>, k9_26 <dbl>, k9_27 <dbl>, k9_28 <dbl>, k9_29 <dbl>,
## #   k9_30 <dbl>, k11a <dbl>, k11b <dbl>, k12a <dbl>, k12b <dbl>, k13 <dbl>,
## #   k14 <dbl>, k15 <dbl>, k16 <dbl>, k17 <dbl>, k18 <dbl>, k19 <dbl>,
## #   k20 <dbl>, k21_1 <dbl>, k21_2 <dbl>, k21_3 <dbl>, k21_4 <dbl>, k21_5 <dbl>,
…
k23:k34, # General Health Questionnaire (1-4, directions already OK)

library(tidyverse)

# For clarity, create a new subset of the data: 
# take only those variables that are to be analysed with FA
#
# save the subset of the data with the name USHSghq ('general health questionnaire'):

USHSghq  <-  USHSv2  %>% 
  select(c(k23:k34))

USHSghq

## # A tibble: 3,110 x 12
##      k23   k24   k25   k26   k27   k28   k29   k30   k31   k32   k33   k34
##    <dbl> <dbl> <dbl> <dbl> <dbl> <dbl> <dbl> <dbl> <dbl> <dbl> <dbl> <dbl>
##  1     2     2     2     2     3     2     2     2     1     1     1     2
##  2     2     1     2     2     2     1     2     2     2     1     1     2
##  3     2     2     3     2     3     2     4     2     3     2     2     3
##  4     2     1     2     2     3     2     2     2     1     1     1     2
##  5     3     3     2     2     3     2     2     2     4     2     1     3
##  6     2     2     2     2     1     2     2     2     2     1     1     2
##  7     3     3     2     2     1     2     3     1     3     3     3     3
##  8     2     1     1     2     2     2     2     2     1     1     1     2
##  9     2     1     2     2     1     1     2     2     1     1     1     2
## 10     3     3     3     2     4     3     3     2     3     2     1     3
## #  with 3,100 more rows
…
